TN-1075;237.9;0
TN-2090;354.96;0
TN-2235;354.96;0
TN-2275;354.96;0
Cartridge 712;206.32;627.15
Cartridge 725;206.32;627.15
Cartridge 728;206.32;627.15
E16/E30;235.57;666.15
FX-10;212.17;656.4
S050167;298.35;0
C3906A;227.77;588.15
C4092A;210.22;627.15
C7115A;210.22;627.15
C7115X;302.34;721.06
CB435A;206.32;627.15
CB436A;206.32;627.15
CB540A;497.12;858.13
CB541A;497.12;858.13
CB542A;497.12;858.13
CB543A;497.12;858.13
CE255A;494.23;982.3
CE255X;723.45;1279.2
CE278A;206.32;627.15
CE285A;206.32;627.15
CE310A;471.15;617.96
CE311A;471.15;617.96
CE312A;471.15;617.96
CE313A;471.15;617.96
CE410A;811.67;1248.69
CE411A;816.55;1248.69
CE412A;816.55;1248.69
CE413A;816.55;1248.69
CE505A;251.33;657.18
CE505X;392.36;792.67
CE740A;1149.62;507
CE741A;1149.62;507
CE742A;1149.62;507
CE743A;1149.62;507
CF210A;643.5;682.5
CF211A;682.5;682.5
CF212A;682.5;682.5
CF213A;682.5;682.5
CF280A;251.33;657.18
CF283A;206.32;627.15
Q2610A;450.86;1104.68
Q2612A;214.28;666.93
Q2613A;218.18;666.93
Q2613X;302.34;727.22
Q2624A;210.22;627.15
Q5942A;723.45;1394.25
Q5949A;237.68;666.93
Q6000A;658.97;867.88
Q6001A;658.97;874.7
Q6002A;658.97;874.7
Q6003A;658.97;874.7
Q6470A;974.12;936
Q6471A;974.12;936
Q6472A;974.12;936
Q6473A;974.12;936
Q7551A;360.53;959.43
Q7551X;606.86;1217.31
Q7553A;237.68;666.93
Q7553X;314.36;749.3
TK-1100;438.84;0
TK-1120;470.36;0
TK-1140;466.77;0
TK-170;471.9;0
TK-3100;1053;0
TK-410;688.44;0
TK-435;875.05;0
TK-450;865.3;0
TK-475;865.3;0
KX-FAT411A;267.43;253.5
H239;187.2;234
ML-1210D3;202.11;623.56
ML-1520D3;223.56;631.36
MLT-D101S;511.94;783.46
MLT-D103L;566.22;988.53
MLT-D103S;417.71;783.46
MLT-D104S;446.96;822.46
MLT-D105L;505.93;949.53
MLT-D105S;410.07;914.11
MLT-D109S;347.67;748.36
MLT-D111S;621.92;802.96
MLT-D203S;421.61;787.36
MLT-D209S;396.26;785.41
SCX-4100D3;257.81;623.56
SCX-D4200A;253.12;646.96
013R00607;229.41;621.3
013R00625;288.22;701.56
106R01159;243.06;621.3
106R01411;483.47;943.3
106R01412;634.32;1058.73
106R02183;390.25;222.8
108R00909;356.16;649.22
109R00639;243.06;664.2
109R00725;276.9;735.15
109R00747;317.16;683.7
113R00667;265.14;655.54
113R00735;288.69;604.5